[
  {
    "language": "English, Australian",
    "voice": "Nicole",
    "sex": "femali"
  },
  {
    "language": "English, Australian",
    "voice": "Russell",
    "sex": "mali"
  },
  {
    "language": "English, British",
    "voice": "Amy",
    "sex": "femali"
  },
    {
    "language": "English, British",
    "voice": "Emma",
    "sex": "femali"
  },
  {
    "language": "English, British",
    "voice": "Brian",
    "sex": "mali"
  },
  {
    "language": "English, Indian",
    "voice": "Raveena",
    "sex": "femali"
  },
  {
    "language": "English, Indian",
    "voice": "Aditi",
    "sex": "femali"
  },
  {
    "language": "English, US",
    "voice": "Salli",
    "sex": "femali"
  },
  {
    "language": "English, US",
    "voice": "Joanna",
    "sex": "femali"
  },
  {
    "language": "English, US",
    "voice": "Ivy",
    "sex": "femali"
  },
  {
    "language": "English, US",
    "voice": "Kendra",
    "sex": "femali"
  },
  {
    "language": "English, US",
    "voice": "Kimberly",
    "sex": "femali"
  },
  {
    "language": "English, US",
    "voice": "Matthew",
    "sex": "mali"
  },      
  {
    "language": "English, US",
    "voice": "Justin",
    "sex": "mali"
  },  
  {
    "language": "English, US",
    "voice": "Joey",
    "sex": "mali"
  },
  {
    "language": "English, Welsh",
    "voice": "Geraint",
    "sex": "mali"
  }
]
